rstudio::conf(2019L)
…
???

Notes:
- You are also free to specify your model in this "X-Y" format.

---

class: middle

```r
predict(fit_lm, new_data = ames_test)
```

```
## # A tibble: 731 x 1
##    .pred
##    <dbl>
##  1  5.23
##  2  5.22
##  3  5.22
##  4  5.29
##  5  5.27
##  6  5.28
##  7  5.27
##  8  5.25
##  9  5.24
## 10  5.24
## # … with 721 more rows
```
…
---

class: middle

```r
ames_test_dummies <- bake(mod_rec_trained, new_data = ames_test)
ames_test_dummies
```

```
## # A tibble: 731 x 11
##    Sale_Price Longitude Latitude Neighborhood_Co… Neighborhood_Ol…
##         <dbl>     <dbl>    <dbl>            <dbl>            <dbl>
##  1       5.02     -93.6     42.1                0                0
##  2       5.24     -93.6     42.1                0                0
##  3       5.39     -93.6     42.1                0                0
##  4       5.33     -93.6     42.1                0                0
##  5       5.27     -93.6     42.1                0                0
##  6       5.26     -93.6     42.1                0                0
##  7       5.73     -93.6     42.1                0                0
##  8       5.18     -93.6     42.1                0                0
##  9       5.06     -93.6     42.1                0                0
## 10       4.94     -93.6     42.1                0                0
## # … with 721 more rows, and 6 more variables: Neighborhood_Edwards <dbl>,
## #   Neighborhood_Somerset <dbl>, Neighborhood_Northridge_Heights <dbl>,
## #   Neighborhood_Gilbert <dbl>, Neighborhood_Sawyer <dbl>,
## #   Neighborhood_other <dbl>
```
…
